0 21959
1 29267
1 57287
1 69820
0 85919
1 34941
1 35585
0 90620
1 40857
0 38303
0 88180
1 91852
1 45008
0 55092
1 2753
1 12047
0 76808
1 85928
1 26662
1 9332
1 60081
0 36614
1 11231
0 32351
0 82266
1 25179
1 78386
0 67733
0 80944
1 91613
1 30791
0 84687
1 16265
0 53178
1 63368
1 85834
0 43609
0 12575
1 38921
1 18984
1 58916
1 62317
1 92964
1 14937
0 4861
1 9094
0 15131
0 79000
0 6052
0 95348
1 19007
1 57695
0 15834
1 44659
0 91938
1 88832
1 49246
1 28775
0 38040
1 62465
0 60321
0 9180
1 96211
0 14390
1 77894
1 27135
0 24422
0 99325
1 70974
1 82880
0 12510
1 56965
1 76240
0 10038
0 63015
1 44803
1 74480
1 55556
0 72836
1 66323
0 35279
1 89183
0 58515
1 88772
1 19887
0 60620
1 35078
1 21943
0 976
1 33548
1 93651
1 16648
0 53789
1 21478
0 69939
0 61061
1 68256
0 49220
1 56426
1 85480
